testKey1;test1 
testKey2;test2 
START;STARTEN 
SETTINGS;EINSTELLUNGEN 
LOADING;LADEN 
PAUSE;PAUSE 
RESUME;LEBENSLAUF 
EXIT;BEENDEN 
BACK;ZURÜCK 
SOUND;SOUND 
MUSIC;MUSIK 
QualityLowKey;Low 
QualityMediumKey;Medium 
QualityHighKey;Hohe 
QualityUltraKey;Ultra 
Hint1;Waschen Sie Ihre Hände. 
Hint2;Bleiben Sie zu Hause. 
Hint3;Sie sind genial!
LOOSE;LOSE
WIN;SIEG
MENU;SPEISEKARTE
NEXT;NÄCHSTER
REPLAY;REPLAY
