testKey1;test1 
testKey2;test2 
START;開始 
SETTINGS;設定 
LOADING;荷重 
PAUSE;一時停止 
RESUME;履歴書 
EXIT;口 
BACK;裏 
SOUND;音 
MUSIC;音楽 
QualityLowKey;低 
QualityMediumKey;中 
QualityHighKey;高 
QualityUltraKey;超 
Hint1;洗います。 
Hint2;泊ます。 
Hint3;す。
LOOSE;失う
WIN;勝つ
MENU;メニュー
NEXT;次
REPLAY;再生
