%YAML 1.1
%TAG !u! tag:unity3d.com,2011:
--- !u!1045 &1
EditorBuildSettings:
  m_ObjectHideFlags: 0
  serializedVersion: 2
  m_Scenes:
  - enabled: 1
    path: Assets/Content/Scenes/Menu.unity
    guid: acaea79ea682baf41bbb06572b662319
  - enabled: 1
    path: Assets/Content/Scenes/Game.unity
    guid: 25cdf87ac8dd03347be740c9be9c5248
  - enabled: 1
    path: Assets/Content/Scenes/Global.unity
    guid: e3f2f06800addf94081d79fb3eb846e2
  m_configObjects: {}
